{
  "request": {
    "method": "GET",
    "url": "https://whatfix.com/api/v1/acc_abc123/end-users?page=1&pageSize=20",
    "headers": {
      "x-whatfix-integration-key": "{{WHATFIX_API_TOKEN}}",
      "x-whatfix-user": "admin@yourcompany.com"
    }
  },
  "response": {
    "status": 200,
    "body": {
      "data": [
        {
          "userId": "user_001",
          "email": "alice@example.com",
          "name": "Alice Johnson",
          "attributes": {
            "role": "Manager",
            "department": "HR",
            "location": "New York"
          },
          "createdAt": "2025-09-01T10:00:00Z",
          "lastSeenAt": "2026-05-02T14:30:00Z"
        },
        {
          "userId": "user_002",
          "email": "bob@example.com",
          "name": "Bob Smith",
          "attributes": {
            "role": "Analyst",
            "department": "Finance",
            "location": "Chicago"
          },
          "createdAt": "2025-09-15T08:45:00Z",
          "lastSeenAt": "2026-05-01T09:15:00Z"
        }
      ],
      "pagination": {
        "page": 1,
        "pageSize": 20,
        "totalCount": 248,
        "totalPages": 13
      }
    }
  }
}
